GENOMEREF = HG19
OUTPUT_NAME = {PLATFORM}_{GENOMEREF}
POSITION_HG18 = "('liftover', '{GENOMEREF}', 'HG18')"
POSITION_HG19 = "('liftover', '{GENOMEREF}', 'HG19', 'chr{CHROMOSOME}:{POSITION}:{STRAND}')"
POSITION_HG38 = "('liftover', '{GENOMEREF}', 'HG38')"
